<?xml version="1.0" encoding="UTF-8"?>
<svg width="30px" height="30px" viewBox="0 0 30 30" version="1.1" xmlns="http://www.w3.org/2000/svg" xmlns:xlink="http://www.w3.org/1999/xlink">
    <!-- Generator: Sketch 52.2 (67145) - http://www.bohemiancoding.com/sketch -->
    <title>Options</title>
    <desc>Created with Sketch.</desc>
    <g id="Page-1" stroke="none" stroke-width="1" fill="none" fill-rule="evenodd">
        <g id="Simple-Landing-Page" transform="translate(-194.000000, -2100.000000)" fill="#FFFFFF">
            <g id="Features" transform="translate(194.000000, 1580.000000)">
                <g id="Features-" transform="translate(0.000000, 264.000000)">
                    <g id="Adaptable-Integration" transform="translate(0.000000, 256.000000)">
                        <g id="Options">
                            <path d="M28.1289844,16.4610526 C27.6051563,16.9839181 26.6741016,16.9053801 26.0535352,16.2860234 L25.9896094,16.2222222 C25.7854687,16.018538 25.6324805,15.7723392 25.5472266,15.5101754 C25.4233008,15.1293567 25.1038477,14.8346784 24.7134961,14.7411111 C24.3491016,14.6538012 23.9791406,14.7536842 23.7239648,15.0084211 L21.6608789,17.0674269 C21.5797266,17.1483626 21.4728516,17.1600585 21.3976758,17.1553801 C21.2664844,17.1474854 21.1314844,17.0832749 21.0274219,16.9794152 L18.8035547,14.7581871 C19.1632617,14.6446199 19.4878125,14.4491813 19.7521289,14.1854386 L19.8087305,14.1288889 C20.293418,13.6451462 20.5364648,12.9839181 20.4931055,12.267193 C20.4513281,11.5769591 20.1460547,10.9150292 19.633418,10.4033918 C19.1207813,9.89181287 18.4576172,9.58707602 17.7660352,9.54538012 C17.0475586,9.50233918 16.385332,9.74467836 15.9006445,10.2283041 L15.8439844,10.2848538 C15.579668,10.5487135 15.3838477,10.8726316 15.2701172,11.2315789 L13.0420312,9.00953216 C12.937793,8.90555556 12.8735156,8.77076023 12.8655469,8.63982456 C12.8609766,8.56467836 12.8726367,8.45807018 12.9536719,8.3771345 L15.0167578,6.31812865 C15.2719922,6.06339181 15.3720703,5.69415205 15.2845898,5.33040936 C15.1907813,4.94081871 14.8955273,4.6219883 14.514082,4.49836257 C14.2514648,4.41321637 14.0047266,4.26052632 13.8007031,4.05695906 L13.7366602,3.99304094 C13.1160937,3.37368421 13.0374023,2.44444444 13.5612891,1.92157895 C14.0850586,1.39871345 15.0161719,1.47719298 15.6367383,2.09660819 L15.7006641,2.16040936 C15.9048047,2.36409357 16.057793,2.61035088 16.1431055,2.87251462 C16.2670312,3.25333333 16.5864844,3.5480117 16.9768359,3.64152047 C17.3412305,3.72883041 17.7111914,3.62888889 17.9663672,3.37421053 L20.0293945,1.3151462 C20.1772852,1.1677193 20.4673828,1.2080117 20.6630273,1.40327485 L22.9396289,3.67555556 C23.2282031,3.96356725 23.6424609,4.08099415 24.0205078,3.98187135 C24.3714258,3.88994152 24.639082,3.62719298 24.7363477,3.27906433 C24.7918359,3.08070175 24.8917969,2.90842105 25.0334766,2.76701754 L25.0901367,2.71046784 C25.6139062,2.18760234 26.5450781,2.26608187 27.1655859,2.88549708 C27.7861523,3.5048538 27.8648437,4.43403509 27.340957,4.95690058 L27.2842969,5.01345029 C27.1426172,5.15491228 26.97,5.25467836 26.7713672,5.31 C26.4225586,5.4071345 26.1592969,5.67421053 26.0671875,6.02444444 C25.9679297,6.40187135 26.0855273,6.81526316 26.3741016,7.10327485 L28.6481836,9.37298246 C28.7524219,9.47695906 28.8166992,9.61175439 28.824668,9.74269006 C28.8292383,9.81783626 28.8175781,9.92438596 28.7364844,10.0053216 L27.7961719,10.9438012 L25.854375,9.00578947 C25.6255078,8.7774269 25.2545508,8.7774269 25.0257422,9.00578947 C24.7969336,9.23415205 24.796875,9.60444444 25.0257422,9.83280702 L26.9675391,11.7708772 L26.673457,12.0644444 C26.4182813,12.3191813 26.3181445,12.6884211 26.405625,13.0520468 C26.499375,13.4416374 26.7946289,13.7604678 27.1760742,13.884152 C27.43875,13.9692982 27.6854297,14.1219883 27.8895703,14.325731 L27.9534961,14.3895322 C28.5742383,15.0090058 28.6528711,15.9383041 28.1289844,16.4610526 Z M28.7183789,13.4988304 C28.4000391,13.1811111 28.0149023,12.9381287 27.6008789,12.7930994 L29.5652344,10.8325731 C29.8645312,10.5338596 30.0209766,10.1109357 29.9944336,9.67239766 C29.9691211,9.25397661 29.7853125,8.85397661 29.4769336,8.54614035 L27.2949609,6.36812865 C27.6025781,6.25087719 27.8823047,6.07099415 28.1130469,5.84064327 L28.169707,5.78409357 C29.1504492,4.80520468 29.0718164,3.13403509 27.9942773,2.05859649 C26.9168555,0.983333333 25.2423633,0.904795322 24.2615039,1.88356725 L24.2048438,1.94011696 C23.974043,2.17052632 23.7938086,2.44976608 23.6763281,2.75690058 L21.4916016,0.576491228 C20.8356445,-0.0781871345 19.8080273,-0.117719298 19.2007031,0.488362573 L17.2364063,2.44883041 C17.0910938,2.03561404 16.8475781,1.65122807 16.5292383,1.33350877 L16.4653125,1.2697076 C15.387832,0.194385965 13.7133398,0.115906433 12.7325391,1.09473684 C11.7518555,2.07356725 11.8304883,3.7448538 12.9078516,4.82005848 L12.9718945,4.88397661 C13.2901758,5.20163743 13.6753125,5.44467836 14.0893945,5.58976608 L12.1249805,7.55023392 C11.5177734,8.15631579 11.5573828,9.1819883 12.213457,9.83684211 L14.5438477,12.1608772 C14.8425,12.4588889 15.2687695,12.572807 15.6560742,12.4583626 C16.0163086,12.3518713 16.2781641,12.0688304 16.3565625,11.7012865 C16.4057227,11.4705263 16.5120703,11.2722807 16.6726758,11.1120468 L16.7293359,11.0554971 C16.9735547,10.8117544 17.3172656,10.6899415 17.6954297,10.712924 C18.1008398,10.7373684 18.4948242,10.9212281 18.8047852,11.2305848 C19.1147461,11.5399415 19.2989063,11.9331579 19.3233984,12.3378363 C19.3463086,12.7159064 19.224375,13.0583626 18.9801563,13.3020468 L18.9235547,13.358538 C18.7630078,13.5187719 18.564375,13.6249123 18.3331641,13.6740351 C17.9648438,13.7522222 17.6813672,14.0135673 17.574668,14.3730994 C17.4599414,14.7597661 17.574082,15.1850292 17.8725586,15.4830409 L20.1986719,17.8064327 C20.5432617,18.1503509 20.990332,18.3245029 21.4252734,18.3245029 C21.8182617,18.3245029 22.2012891,18.1822807 22.4895703,17.8945614 L24.4538672,15.9340936 C24.5991797,16.347193 24.8426953,16.7316374 25.1609766,17.0492982 L25.2249609,17.1131579 C26.3025,18.188538 27.9769336,18.2670175 28.9577344,17.2881871 C29.938418,16.3092982 29.8597852,14.6380702 28.7823633,13.5626901 L28.7183789,13.4988304 Z M23.9162109,7.31368421 C24.0703125,7.31368421 24.2214844,7.37625731 24.3304688,7.48502924 C24.4394531,7.59380117 24.5021484,7.74467836 24.5021484,7.89847953 C24.5021484,8.0522807 24.4394531,8.20315789 24.3304688,8.31192982 C24.2214844,8.42070175 24.0703125,8.48327485 23.9162109,8.48327485 C23.7621094,8.48327485 23.6109961,8.42070175 23.5020117,8.31192982 C23.3930273,8.20315789 23.330332,8.0522807 23.330332,7.89847953 C23.330332,7.74467836 23.3930273,7.59380117 23.5020117,7.48502924 C23.6109961,7.37625731 23.7621094,7.31368421 23.9162109,7.31368421 Z M11.4735352,23.3233333 C11.6276367,23.3233333 11.7788086,23.3859064 11.8877344,23.4946784 C11.9967188,23.6034503 12.0594141,23.7543275 12.0594141,23.9081287 C12.0594141,24.0619298 11.9967188,24.212807 11.8877344,24.3215789 C11.7788086,24.4303509 11.6276367,24.492924 11.4735352,24.492924 C11.3188477,24.492924 11.1682617,24.4303509 11.0592773,24.3215789 C10.950293,24.212807 10.8875977,24.0619298 10.8875977,23.9081287 C10.8875977,23.7543275 10.950293,23.6034503 11.0592773,23.4946784 C11.1682617,23.3859064 11.3194336,23.3233333 11.4735352,23.3233333 Z M17.0423438,21.6797661 C17.1234375,21.5987719 17.1350391,21.4922222 17.1304688,21.417076 C17.1225586,21.2861404 17.0582227,21.1514035 16.954043,21.0474269 L14.6257617,18.7236842 C14.327168,18.4256725 14.2129688,18.0002924 14.3276953,17.6135673 C14.4343945,17.2539766 14.7179883,16.9926316 15.08625,16.9144444 C15.3174609,16.8653216 15.5160938,16.7591813 15.6766406,16.5989474 L15.7332422,16.5423977 C16.2571289,16.0196491 16.1784375,15.0904094 15.5578711,14.4709942 C15.2479688,14.1616374 14.8539258,13.9777778 14.4485156,13.9533918 C14.0696484,13.9305848 13.7266406,14.0522222 13.4824219,14.2959064 L13.4257617,14.3524561 C13.2651563,14.5126901 13.1588086,14.7109357 13.1096484,14.9416959 C13.03125,15.3092982 12.7693945,15.5923392 12.4091602,15.6987719 C12.0216211,15.8132749 11.5955273,15.6992982 11.2969922,15.4012865 L8.96865234,13.0776023 C8.773125,12.8823392 8.48296875,12.8419883 8.33507813,12.9894737 L6.41396484,14.9067836 C6.77648438,15.0555556 7.10390625,15.2744444 7.38808594,15.5580702 L7.45201172,15.6218713 C8.52955078,16.6972515 8.60818359,18.3684795 7.62744141,19.3473099 C6.64658203,20.3261404 4.97214844,20.2476608 3.89460938,19.1722807 L3.83068359,19.1084795 C3.5465625,18.8248538 3.3271875,18.4980702 3.178125,18.1363158 L1.25935547,20.051345 C1.17832031,20.1323392 1.16666016,20.2388889 1.17123047,20.3140351 C1.17919922,20.4449708 1.24347656,20.5797661 1.34771484,20.6837427 L3.67587891,23.0075439 C3.97441406,23.3054971 4.08867188,23.7308187 3.97394531,24.1175439 C3.86724609,24.4771345 3.58371094,24.738538 3.21539063,24.8167251 C2.98417969,24.8657895 2.78554688,24.9719298 2.625,25.1321637 L2.56833984,25.1887135 C2.04451172,25.7115789 2.12320313,26.6408187 2.74376953,27.2601754 C3.36421875,27.8794737 4.29539063,27.9580117 4.81921875,27.4352047 L4.87587891,27.3787135 C5.03642578,27.2184795 5.14277344,27.0202339 5.19199219,26.7894152 C5.27033203,26.4218713 5.5321875,26.1388889 5.89242188,26.0323977 C5.99197266,26.0029825 6.09416016,25.9885965 6.19599609,25.9885965 C6.49054688,25.9885965 6.7828125,26.1084211 7.00470703,26.329883 L7.61144531,26.9354386 L9.5559375,24.9946784 C9.78480469,24.7663743 10.1558203,24.7663158 10.3846289,24.9946784 C10.6134375,25.2230994 10.6134375,25.5933918 10.3846289,25.8217544 L8.44013672,27.7625146 L9.33298828,28.6536257 C9.43722656,28.7576023 9.57222656,28.8218129 9.70341797,28.8297076 C9.77876953,28.8345029 9.88552734,28.8226901 9.96662109,28.7417544 L11.9816602,26.7305848 C12.228457,26.484269 12.5872266,26.3817544 12.9413672,26.4564912 C13.3264453,26.5377193 13.6413281,26.805731 13.7836523,27.1734503 C13.8735352,27.4054971 14.0120508,27.6159649 14.1952734,27.7988304 L14.2591992,27.8626316 C14.879707,28.4819298 15.8108203,28.5604678 16.3346484,28.0376023 C16.8585352,27.5147953 16.7798438,26.5855556 16.1592773,25.9661988 L16.0953516,25.9023977 C15.9121289,25.7194737 15.70125,25.5812865 15.4686914,25.4915789 C15.1002539,25.3494737 14.8317773,25.0352632 14.7503906,24.6509942 C14.6755078,24.2976023 14.7782227,23.9395322 15.0249609,23.6931579 L17.0423438,21.6797661 Z M17.7826758,20.2203509 C18.0910547,20.5281287 18.2748633,20.9281287 18.3001758,21.3465497 C18.3267188,21.7851462 18.1702734,22.2079532 17.870918,22.5067251 L15.9498633,24.4240936 C16.3123828,24.5728655 16.6398047,24.7917544 16.9239844,25.0753216 L16.9879102,25.1391228 C18.065332,26.2145029 18.1440234,27.8857895 17.1632813,28.8646199 C16.1824805,29.8434503 14.5079883,29.7649123 13.4305078,28.6895906 L13.366582,28.6257895 C13.0824609,28.3421053 12.8630859,28.0153216 12.7140234,27.6536257 L10.7952539,29.568655 C10.5178125,29.8455556 10.1334961,30 9.72884766,30 C9.69691406,30 9.66486328,29.9990058 9.63275391,29.997076 C9.21351563,29.9717544 8.81273438,29.7883626 8.50435547,29.4805263 L6.2784375,27.2589474 C6.16464844,27.6180117 5.96888672,27.9418713 5.70462891,28.205614 L5.64796875,28.2621053 C5.18783203,28.721345 4.57488281,28.9478947 3.94265625,28.9478947 C3.22722656,28.9480117 2.48724609,28.6580117 1.91519531,28.0871345 C0.837714844,27.0117544 0.759023438,25.3405263 1.73976563,24.3616959 L1.79642578,24.3051462 C2.06074219,24.0414035 2.38529297,23.8459649 2.74494141,23.7323977 L0.519023438,21.5108187 C-0.136933594,20.8561404 -0.176425781,19.8304678 0.430722656,19.224386 L2.44582031,17.2131579 C2.69273438,16.9667836 3.05150391,16.8643275 3.40558594,16.9390643 C3.79066406,17.0203509 4.10548828,17.2883626 4.2478125,17.6560819 C4.33769531,17.8881287 4.47615234,18.0985965 4.659375,18.281462 L4.72330078,18.3452632 C5.03320313,18.6546199 5.42724609,18.8384795 5.83271484,18.8628655 C6.21128906,18.8860234 6.55453125,18.7640936 6.79875,18.5203509 C7.04296875,18.2766082 7.16490234,17.934152 7.14199219,17.5561404 C7.11755859,17.151462 6.93333984,16.7582456 6.62337891,16.4488889 L6.55945313,16.3850877 C6.37623047,16.2022222 6.16535156,16.0640351 5.93279297,15.9743275 C5.56447266,15.8323392 5.2959375,15.5181287 5.21449219,15.1338596 C5.13960938,14.7804678 5.24226563,14.4223392 5.48912109,14.1759649 L7.50644531,12.1625146 C8.11382813,11.5564912 9.14144531,11.5960234 9.79734375,12.2506433 L12.0232031,14.4722222 C12.1369336,14.1132749 12.3327539,13.7893567 12.5971289,13.5255556 L12.6537305,13.4690643 C13.138418,12.9853801 13.8005273,12.7427485 14.5191211,12.7860819 C15.2106445,12.8277778 15.8738086,13.1323977 16.3865039,13.6440351 C17.4639844,14.7194737 17.5426758,16.3906433 16.561875,17.3695322 L16.5052734,17.4260819 C16.2410156,17.6897661 15.916582,17.8851462 15.5570508,17.9987135 L17.7826758,20.2203509 Z" id="Fill-7"></path>
                        </g>
                    </g>
                </g>
            </g>
        </g>
    </g>
</svg>